Library\Bee\artifacts\movedfrom\UnityEditor.UI.ref.dll_5519394401220875509.movedfrom
Library\Bee\artifacts\movedfrom\UnityEngine.UI.ref.dll_648142665722821984.movedfrom
Library\Bee\artifacts\movedfrom\UnityEditor.Graphs.dll_7263600084356822996.movedfrom
Library\Bee\artifacts\movedfrom\UnityEditor.CoreModule.dll_5653462732449353634.movedfrom
Library\Bee\artifacts\movedfrom\UnityEditor.DeviceSimulatorModule.dll_12283994511220637119.movedfrom
Library\Bee\artifacts\movedfrom\UnityEditor.dll_14418405226397780051.movedfrom
Library\Bee\artifacts\movedfrom\UnityEditor.GraphViewModule.dll_12162282268808135812.movedfrom
Library\Bee\artifacts\movedfrom\UnityEditor.PackageManagerUIModule.dll_10977870783758902910.movedfrom
Library\Bee\artifacts\movedfrom\UnityEditor.QuickSearchModule.dll_9628836098997658790.movedfrom
Library\Bee\artifacts\movedfrom\UnityEditor.SceneTemplateModule.dll_15297997167988937703.movedfrom
Library\Bee\artifacts\movedfrom\UnityEditor.UIBuilderModule.dll_18253591102522113464.movedfrom
Library\Bee\artifacts\movedfrom\UnityEditor.UIElementsModule.dll_8958458107213836190.movedfrom
Library\Bee\artifacts\movedfrom\UnityEditor.UIElementsSamplesModule.dll_15558290831314474415.movedfrom
Library\Bee\artifacts\movedfrom\UnityEditor.UIServiceModule.dll_3910208355817688530.movedfrom
Library\Bee\artifacts\movedfrom\UnityEditor.UnityConnectModule.dll_4422479873827147608.movedfrom
Library\Bee\artifacts\movedfrom\UnityEngine.AccessibilityModule.dll_500694463625018244.movedfrom
Library\Bee\artifacts\movedfrom\UnityEngine.AIModule.dll_14238574375494925750.movedfrom
Library\Bee\artifacts\movedfrom\UnityEngine.AndroidJNIModule.dll_18058237148478463604.movedfrom
Library\Bee\artifacts\movedfrom\UnityEngine.AnimationModule.dll_8596975253718309162.movedfrom
Library\Bee\artifacts\movedfrom\UnityEngine.ARModule.dll_9154789964384836735.movedfrom
Library\Bee\artifacts\movedfrom\UnityEngine.AssetBundleModule.dll_14522334581431818648.movedfrom
Library\Bee\artifacts\movedfrom\UnityEngine.AudioModule.dll_16685716945553334172.movedfrom
Library\Bee\artifacts\movedfrom\UnityEngine.ClothModule.dll_5654251890780208768.movedfrom
Library\Bee\artifacts\movedfrom\UnityEngine.ClusterInputModule.dll_13617833149044089374.movedfrom
Library\Bee\artifacts\movedfrom\UnityEngine.ClusterRendererModule.dll_12692909969866132291.movedfrom
Library\Bee\artifacts\movedfrom\UnityEngine.CoreModule.dll_8184718074991278797.movedfrom
Library\Bee\artifacts\movedfrom\UnityEngine.CrashReportingModule.dll_9801474327520333957.movedfrom
Library\Bee\artifacts\movedfrom\UnityEngine.DirectorModule.dll_7228830693047211050.movedfrom
Library\Bee\artifacts\movedfrom\UnityEngine.dll_18067524719586235704.movedfrom
Library\Bee\artifacts\movedfrom\UnityEngine.DSPGraphModule.dll_7612025241868821835.movedfrom
Library\Bee\artifacts\movedfrom\UnityEngine.GameCenterModule.dll_2659667076424355685.movedfrom
Library\Bee\artifacts\movedfrom\UnityEngine.GIModule.dll_6761553416948393424.movedfrom
Library\Bee\artifacts\movedfrom\UnityEngine.GridModule.dll_5694539665456468164.movedfrom
Library\Bee\artifacts\movedfrom\UnityEngine.HotReloadModule.dll_17912880015295853740.movedfrom
Library\Bee\artifacts\movedfrom\UnityEngine.ImageConversionModule.dll_2024442862141653815.movedfrom
Library\Bee\artifacts\movedfrom\UnityEngine.IMGUIModule.dll_2301113524515877757.movedfrom
Library\Bee\artifacts\movedfrom\UnityEngine.InputLegacyModule.dll_6543393234827022217.movedfrom
Library\Bee\artifacts\movedfrom\UnityEngine.InputModule.dll_5621999596699141184.movedfrom
Library\Bee\artifacts\movedfrom\UnityEngine.JSONSerializeModule.dll_7424848306508602382.movedfrom
Library\Bee\artifacts\movedfrom\UnityEngine.LocalizationModule.dll_18107018533703243031.movedfrom
Library\Bee\artifacts\movedfrom\UnityEngine.ParticleSystemModule.dll_15787401774862130195.movedfrom
Library\Bee\artifacts\movedfrom\UnityEngine.PerformanceReportingModule.dll_4506186750364654732.movedfrom
Library\Bee\artifacts\movedfrom\UnityEngine.Physics2DModule.dll_14120059588530213055.movedfrom
Library\Bee\artifacts\movedfrom\UnityEngine.PhysicsModule.dll_13180471905649694189.movedfrom
Library\Bee\artifacts\movedfrom\UnityEngine.ProfilerModule.dll_10851476549977152311.movedfrom
Library\Bee\artifacts\movedfrom\UnityEngine.RuntimeInitializeOnLoadManagerInitializerModule.dll_4102549725791289224.movedfrom
Library\Bee\artifacts\movedfrom\UnityEngine.ScreenCaptureModule.dll_9291499664161851504.movedfrom
Library\Bee\artifacts\movedfrom\UnityEngine.SharedInternalsModule.dll_11540899436300680839.movedfrom
Library\Bee\artifacts\movedfrom\UnityEngine.SpriteMaskModule.dll_1014853275889099999.movedfrom
Library\Bee\artifacts\movedfrom\UnityEngine.SpriteShapeModule.dll_16351127372738564514.movedfrom
Library\Bee\artifacts\movedfrom\UnityEngine.StreamingModule.dll_3162517332576424040.movedfrom
Library\Bee\artifacts\movedfrom\UnityEngine.SubstanceModule.dll_616598473257438838.movedfrom
Library\Bee\artifacts\movedfrom\UnityEngine.SubsystemsModule.dll_8701765985139084530.movedfrom
Library\Bee\artifacts\movedfrom\UnityEngine.TerrainModule.dll_15073808314968202971.movedfrom
Library\Bee\artifacts\movedfrom\UnityEngine.TerrainPhysicsModule.dll_15821927346636215968.movedfrom
Library\Bee\artifacts\movedfrom\UnityEngine.TextCoreModule.dll_18234172336625648698.movedfrom
Library\Bee\artifacts\movedfrom\UnityEngine.TextRenderingModule.dll_12263719333598775397.movedfrom
Library\Bee\artifacts\movedfrom\UnityEngine.TilemapModule.dll_8083209597529047012.movedfrom
Library\Bee\artifacts\movedfrom\UnityEngine.TLSModule.dll_10940229999002100609.movedfrom
Library\Bee\artifacts\movedfrom\UnityEngine.UIElementsModule.dll_9007554909204580585.movedfrom
Library\Bee\artifacts\movedfrom\UnityEngine.UIElementsNativeModule.dll_16344389768694404768.movedfrom
Library\Bee\artifacts\movedfrom\UnityEngine.UIModule.dll_13910829945285886818.movedfrom
Library\Bee\artifacts\movedfrom\UnityEngine.UmbraModule.dll_7089861260980964111.movedfrom
Library\Bee\artifacts\movedfrom\UnityEngine.UNETModule.dll_305186644298952774.movedfrom
Library\Bee\artifacts\movedfrom\UnityEngine.UnityAnalyticsModule.dll_18066065722813885967.movedfrom
Library\Bee\artifacts\movedfrom\UnityEngine.UnityConnectModule.dll_3080270909761654787.movedfrom
Library\Bee\artifacts\movedfrom\UnityEngine.UnityCurlModule.dll_12279971082706357015.movedfrom
Library\Bee\artifacts\movedfrom\UnityEngine.UnityTestProtocolModule.dll_10641123040675670789.movedfrom
Library\Bee\artifacts\movedfrom\UnityEngine.UnityWebRequestAssetBundleModule.dll_14855662658133967904.movedfrom
Library\Bee\artifacts\movedfrom\UnityEngine.UnityWebRequestAudioModule.dll_13152064350212155172.movedfrom
Library\Bee\artifacts\movedfrom\UnityEngine.UnityWebRequestModule.dll_3294184908993060278.movedfrom
Library\Bee\artifacts\movedfrom\UnityEngine.UnityWebRequestTextureModule.dll_3398034283396598137.movedfrom
Library\Bee\artifacts\movedfrom\UnityEngine.UnityWebRequestWWWModule.dll_11787606826881668917.movedfrom
Library\Bee\artifacts\movedfrom\UnityEngine.VehiclesModule.dll_15858564854948225989.movedfrom
Library\Bee\artifacts\movedfrom\UnityEngine.VFXModule.dll_1779513008788409582.movedfrom
Library\Bee\artifacts\movedfrom\UnityEngine.VideoModule.dll_907782720103267137.movedfrom
Library\Bee\artifacts\movedfrom\UnityEngine.VirtualTexturingModule.dll_531323965264467755.movedfrom
Library\Bee\artifacts\movedfrom\UnityEngine.VRModule.dll_1431960683181525210.movedfrom
Library\Bee\artifacts\movedfrom\UnityEngine.WindModule.dll_16709710186931648822.movedfrom
Library\Bee\artifacts\movedfrom\UnityEngine.XRModule.dll_5088535054902531640.movedfrom
Library\Bee\artifacts\movedfrom\UnityEditor.WindowsStandalone.Extensions.dll_11391277513306959390.movedfrom
Library\Bee\artifacts\movedfrom\Unity.Plastic.Antlr3.Runtime.dll_16789835069442744244.movedfrom
Library\Bee\artifacts\movedfrom\Unity.Plastic.Newtonsoft.Json.dll_3159223957707552833.movedfrom
Library\Bee\artifacts\movedfrom\Unity.VisualScripting.IonicZip.dll_12694038841622442836.movedfrom
Library\Bee\artifacts\movedfrom\Unity.VisualScripting.YamlDotNet.dll_5683559382548607848.movedfrom
Library\Bee\artifacts\movedfrom\Unity.VisualScripting.Antlr3.Runtime.dll_21732974641742727.movedfrom